<?xml version="1.0" standalone="no"?>
<!DOCTYPE svg PUBLIC "-//W3C//DTD SVG 1.1//EN" "http://www.w3.org/Graphics/SVG/1.1/DTD/svg11.dtd">
<svg xmlns="http://www.w3.org/2000/svg">
<metadata>Copyright (C) 2015 by original authors @ fontello.com</metadata>
<defs>
<font id="fontello" horiz-adv-x="1000" >
<font-face font-family="fontello" font-weight="400" font-stretch="normal" units-per-em="1000" ascent="850" descent="-150" />
<missing-glyph horiz-adv-x="1000" />
<glyph glyph-name="cw" unicode="&#xe800;" d="m857 707v-250q0-14-10-25t-26-11h-250q-23 0-32 23-10 22 7 38l77 77q-82 77-194 77-58 0-111-23t-91-61-62-91-22-111 22-111 62-91 91-61 111-23q66 0 125 29t100 82q4 6 13 7 8 0 14-5l76-77q5-4 6-11t-5-13q-60-74-147-114t-182-41q-87 0-167 34t-136 92-92 137-34 166 34 166 92 137 136 92 167 34q82 0 158-31t137-88l72 72q16 18 39 8 22-9 22-33z" horiz-adv-x="857.1" />
<glyph glyph-name="users" unicode="&#xe801;" d="m331 350q-90-3-148-71h-75q-45 0-77 22t-31 66q0 197 69 197 4 0 25-11t54-24 66-12q38 0 75 13-3-21-3-37 0-78 45-143z m598-356q0-66-41-105t-108-39h-488q-68 0-108 39t-41 105q0 30 2 58t8 61 14 61 24 54 35 45 48 30 62 11q6 0 24-12t41-26 59-27 76-12 75 12 60 27 41 26 23 12q35 0 63-11t47-30 35-45 24-54 15-61 8-61 2-58z m-572 713q0-59-42-101t-101-42-101 42-42 101 42 101 101 42 101-42 42-101z m393-214q0-89-63-152t-151-62-152 62-63 152 63 151 152 63 151-63 63-151z m321-126q0-43-31-66t-77-22h-75q-57 68-147 71 45 65 45 143 0 16-3 37 37-13 74-13 33 0 67 12t54 24 24 11q69 0 69-197z m-71 340q0-59-42-101t-101-42-101 42-42 101 42 101 101 42 101-42 42-101z" horiz-adv-x="1071.4" />
<glyph glyph-name="bookmark" unicode="&#xe802;" d="m0-56l0 906 609 0 0-1000-304 305-305-305 0 94z" horiz-adv-x="609" />
<glyph glyph-name="certificate-outline" unicode="&#xe803;" d="m1019 395q22-15 22-44t-22-43l-96-64 51-104q14-26-3-49t-41-26l-115-7-7-117q-3-25-25-40t-50-2l-104 51-65-96q-16-24-43-24-27 0-43 24l-64 96-104-51q-26-14-49 2t-26 40l-7 117-117 7q-25 3-40 25t-2 50l51 104-96 64q-24 16-24 43t24 44l96 64-51 104q-14 27 2 50t40 25l117 7 7 115q3 25 26 41t49 3l104-51 64 96q13 21 43 21t43-21l65-96 104 51q26 14 50-3t25-41l7-115 115-7q25-3 41-25t3-50l-51-104z m-210-156q-9 17-4 36t21 30l70 46-70 47q-36 26-17 66l37 75-83 5q-20 1-34 15t-15 34l-5 83-75-37q-40-19-66 17l-47 70-46-70q-26-36-66-17l-75 37-5-83q-1-20-15-34t-34-15l-84-5 38-75q9-18 3-36t-22-30l-69-47 69-46q16-11 22-30t-3-36l-38-75 84-5q20-1 33-15t15-34l6-84 75 38q10 5 22 5 29 0 44-23l46-70 47 69q11 16 30 22t36-3l75-38 5 84q1 20 15 34t34 15l82 5z" horiz-adv-x="1041" />
<glyph glyph-name="certificate" unicode="&#xe804;" d="m863 449l115-78q12-8 12-21t-12-21l-115-78 61-123q7-14-1-25t-20-13l-139-10-9-138q-1-12-12-20t-25-2l-124 62-78-116q-7-11-21-11t-21 11l-78 116-123-62q-14-6-25 2t-13 20l-10 139-137 9q-13 1-22 13t-1 25l63 123-117 78q-11 7-11 21t11 21l117 78-63 124q-7 12 1 24t22 13l137 9 10 139q1 12 13 20t25 1l123-61 78 116q7 11 21 11t21-11l78-116 124 61q13 7 25-1t12-20l9-139 139-9q12-1 20-12t1-25z" horiz-adv-x="990" />
<glyph glyph-name="circle" unicode="&#xe805;" d="m857 350q0-117-57-215t-156-156-215-58-216 58-155 156-58 215 58 215 155 156 216 58 215-58 156-156 57-215z" horiz-adv-x="857.1" />
<glyph glyph-name="circle-empty" unicode="&#xe806;" d="m429 654q-83 0-153-41t-110-111-41-152 41-152 110-111 153-41 152 41 110 111 41 152-41 152-110 111-152 41z m428-304q0-117-57-215t-156-156-215-58-216 58-155 156-58 215 58 215 155 156 216 58 215-58 156-156 57-215z" horiz-adv-x="857.1" />
<glyph glyph-name="circle-thin" unicode="&#xe807;" d="m429 707q-73 0-139-28t-114-76-76-114-29-139 29-139 76-113 114-77 139-28 138 28 114 77 76 113 29 139-29 139-76 114-114 76-138 28z m428-357q0-117-57-215t-156-156-215-58-216 58-155 156-58 215 58 215 155 156 216 58 215-58 156-156 57-215z" horiz-adv-x="857.1" />
<glyph glyph-name="flag-empty" unicode="&#xe808;" d="m929 267v344q-95-51-171-51-46 0-81 18-56 27-103 42t-99 16q-97 0-225-71v-334q137 63 242 63 30 0 57-5t55-14 43-17 46-22l16-8q24-13 56-13 67 0 164 52z m-750 440q0-19-10-36t-26-25v-707q0-8-5-13t-13-5h-36q-7 0-13 5t-5 13v707q-16 9-25 25t-10 36q0 30 21 51t50 20 51-20 21-51z m821-36v-425q0-22-20-32-5-3-9-5-122-65-206-65-49 0-88 20l-16 7q-35 19-55 27t-51 16-63 8q-57 0-132-24t-127-57q-9-5-19-5-9 0-18 4-17 11-17 31v414q0 20 17 31 19 12 44 24t63 29 85 28 87 10q62 0 117-17t116-48q21-11 50-11 68 0 173 63 12 6 17 9 17 9 35-1 17-11 17-31z" horiz-adv-x="1000" />
<glyph glyph-name="flag" unicode="&#xe809;" d="m179 707q0-40-36-61v-707q0-7-5-12t-13-6h-36q-7 0-12 6t-6 12v707q-35 21-35 61 0 30 21 51t50 21 51-21 21-51z m821-36v-425q0-14-7-22t-22-15q-120-65-206-65-34 0-69 12t-60 27-65 27-79 12q-107 0-259-81-10-5-19-5-14 0-25 10t-10 25v414q0 18 17 31 12 8 44 24 132 67 235 67 60 0 112-16t122-49q21-11 49-11 30 0 65 12t62 26 49 26 30 12q15 0 25-10t11-26z" horiz-adv-x="1000" />
<glyph glyph-name="flag-1" unicode="&#xe80a;" d="m874 616q14 6 22-1t0-19q-96-138-164-213t-110-90-73-2-60 37-63 40-93-4-139-86l90-352-100 0-184 720 92 34q90 66 152 86t98 3 64-51 62-71 79-62 129-20 198 51z" horiz-adv-x="900" />
</font>
</defs>
</svg>