{
  "name": "",
  "css_prefix_text": "icon-",
  "css_use_suffix": false,
  "hinting": true,
  "units_per_em": 1000,
  "ascent": 850,
  "glyphs": [
    {
      "uid": "31972e4e9d080eaa796290349ae6c1fd",
      "css": "users",
      "code": 59393,
      "src": "fontawesome"
    },
    {
      "uid": "57a0ac800df728aad61a7cf9e12f5fef",
      "css": "flag",
      "code": 59401,
      "src": "fontawesome"
    },
    {
      "uid": "6c83092421441296f5c4e8074b0cf32c",
      "css": "flag-empty",
      "code": 59400,
      "src": "fontawesome"
    },
    {
      "uid": "bc71f4c6e53394d5ba46b063040014f1",
      "css": "cw",
      "code": 59392,
      "src": "fontawesome"
    },
    {
      "uid": "130380e481a7defc690dfb24123a1f0c",
      "css": "circle",
      "code": 59397,
      "src": "fontawesome"
    },
    {
      "uid": "422e07e5afb80258a9c4ed1706498f8a",
      "css": "circle-empty",
      "code": 59398,
      "src": "fontawesome"
    },
    {
      "uid": "5774d0a0e50f6eefc8be01bd761e5dd3",
      "css": "circle-thin",
      "code": 59399,
      "src": "fontawesome"
    },
    {
      "uid": "1d2a6c3d9236b88b0f185c7c4530fa52",
      "css": "flag-1",
      "code": 59402,
      "src": "entypo"
    },
    {
      "uid": "d7b214265bfe7138768bb8b9f62b759a",
      "css": "certificate-outline",
      "code": 59395,
      "src": "typicons"
    },
    {
      "uid": "1a7ed99931fee554309101d072e5363d",
      "css": "certificate",
      "code": 59396,
      "src": "typicons"
    },
    {
      "uid": "8d2b0a28ccbfc06bb840720e554d79cc",
      "css": "bookmark",
      "code": 59394,
      "src": "elusive"
    }
  ]
}